<svg xmlns="http://www.w3.org/2000/svg" width="31" height="31" viewBox="0 0 31 31" fill="none">
  <path d="M20.1667 10.6121C22.1724 10.6121 24.0959 11.4088 25.5142 12.8271C26.9324 14.2453 27.7292 16.1689 27.7292 18.1746V26.9975H22.6875V18.1746C22.6875 17.506 22.4219 16.8648 21.9492 16.3921C21.4764 15.9193 20.8353 15.6537 20.1667 15.6537C19.4981 15.6537 18.8569 15.9193 18.3842 16.3921C17.9114 16.8648 17.6459 17.506 17.6459 18.1746V26.9975H12.6042V18.1746C12.6042 16.1689 13.4009 14.2453 14.8192 12.8271C16.2374 11.4088 18.161 10.6121 20.1667 10.6121Z" fill="#FAFAFA"/>
  <path d="M7.56248 11.8726H2.52081V26.9976H7.56248V11.8726Z" fill="#FAFAFA"/>
  <path d="M5.04165 8.09123C6.43386 8.09123 7.56248 6.96261 7.56248 5.57039C7.56248 4.17818 6.43386 3.04956 5.04165 3.04956C3.64943 3.04956 2.52081 4.17818 2.52081 5.57039C2.52081 6.96261 3.64943 8.09123 5.04165 8.09123Z" fill="#FAFAFA"/>
</svg>