<svg width="24" height="24" viewBox="0 0 24 24" fill="none" xmlns="http://www.w3.org/2000/svg">
<g id="User">
<g id="Vector">
<path d="M12 15C15.3137 15 18 12.3137 18 9C18 5.68629 15.3137 3 12 3C8.68629 3 6 5.68629 6 9C6 12.3137 8.68629 15 12 15Z" stroke="#181818" stroke-width="2" stroke-miterlimit="10"/>
<path d="M12 15C15.3137 15 18 12.3137 18 9C18 5.68629 15.3137 3 12 3C8.68629 3 6 5.68629 6 9C6 12.3137 8.68629 15 12 15Z" stroke="white" stroke-opacity="0.6" stroke-width="2" stroke-miterlimit="10"/>
</g>
<g id="Vector_2">
<path d="M2.90625 20.2499C3.82775 18.6534 5.15328 17.3277 6.74958 16.406C8.34588 15.4843 10.1567 14.999 12 14.999C13.8433 14.999 15.6541 15.4843 17.2504 16.406C18.8467 17.3277 20.1722 18.6534 21.0938 20.2499" stroke="#181818" stroke-width="2" stroke-linecap="round" stroke-linejoin="round"/>
<path d="M2.90625 20.2499C3.82775 18.6534 5.15328 17.3277 6.74958 16.406C8.34588 15.4843 10.1567 14.999 12 14.999C13.8433 14.999 15.6541 15.4843 17.2504 16.406C18.8467 17.3277 20.1722 18.6534 21.0938 20.2499" stroke="white" stroke-opacity="0.6" stroke-width="2" stroke-linecap="round" stroke-linejoin="round"/>
</g>
</g>
</svg>
