<svg width="20" height="20" viewBox="0 0 20 20" fill="none" xmlns="http://www.w3.org/2000/svg">
<path d="M13.3333 1.66699V5.00033M6.66667 1.66699V5.00033M2.5 8.33366H17.5M4.16667 3.33366H15.8333C16.7538 3.33366 17.5 4.07985 17.5 5.00033V16.667C17.5 17.5875 16.7538 18.3337 15.8333 18.3337H4.16667C3.24619 18.3337 2.5 17.5875 2.5 16.667V5.00033C2.5 4.07985 3.24619 3.33366 4.16667 3.33366Z" stroke="#84C6F8" stroke-width="2" stroke-linecap="round" stroke-linejoin="round"/>
</svg>
