<svg width="32" height="32" viewBox="0 0 32 32" fill="none" xmlns="http://www.w3.org/2000/svg">
<path fill-rule="evenodd" clip-rule="evenodd" d="M12.769 12C12.769 7.95004 16.3043 4.66671 20.6663 4.66671C25.0277 4.66671 28.5637 7.95004 28.5637 12C28.5637 14.538 27.1757 16.7754 25.0637 18.0927C23.271 19.21 21.3837 20.9694 21.3837 23.274V23.3334C21.3837 25.5427 19.4557 27.3334 17.077 27.3334C14.697 27.3334 12.769 25.5427 12.769 23.3334V22H11.333V23.3334C11.333 26.2787 13.9043 28.6667 17.0763 28.6667C20.2483 28.6667 22.8203 26.2787 22.8203 23.3334V23.274C22.8203 21.6714 24.1623 20.2607 25.8637 19.1994C28.357 17.6447 29.9997 15.0007 29.9997 12C29.9997 7.21337 25.821 3.33337 20.6663 3.33337C15.5117 3.33337 11.333 7.21337 11.333 12H12.769ZM19.9997 9.33337C18.701 9.33337 17.6477 10.21 17.3923 11.3467H17.411C17.953 11.3747 18.6897 11.452 19.4363 11.656C20.177 11.8587 20.9777 12.2 21.601 12.7874C22.2437 13.3934 22.6663 14.2334 22.6663 15.3387C22.6663 15.3587 22.6657 15.3787 22.6637 15.3987C22.5663 16.472 22.3037 17.292 21.9057 17.9067C21.5017 18.5314 20.9817 18.9087 20.4377 19.1227C19.9057 19.332 19.3723 19.3774 18.9383 19.3774C18.7203 19.3774 18.519 19.3654 18.353 19.3554L18.287 19.3507C18.2204 19.3461 18.1537 19.3421 18.087 19.3387C18.0775 19.3556 18.0684 19.3727 18.0597 19.39C17.989 19.5359 17.9274 19.686 17.875 19.8394C17.8323 19.9554 17.7837 20.0887 17.7197 20.2487C17.5797 20.5987 17.379 21.034 17.0417 21.382C16.679 21.7547 16.1857 22 15.5403 22C14.9817 22 14.519 21.872 14.1563 21.6234C13.8388 21.4055 13.5982 21.0928 13.469 20.73C13.3774 20.4724 13.3314 20.2008 13.333 19.9274C13.333 19.8056 13.3419 19.6839 13.3597 19.5634L13.3617 19.554L13.3623 19.5507V19.5487C13.3623 19.548 13.3623 19.5474 14.0183 19.6674L14.6743 19.7867V19.7847L14.675 19.7827L14.6723 19.808C14.6568 19.9642 14.6734 20.1219 14.721 20.2714C14.7546 20.373 14.8204 20.461 14.9083 20.522C15.0017 20.586 15.1863 20.666 15.5403 20.666C15.8083 20.666 15.9617 20.5787 16.085 20.452C16.2323 20.3 16.355 20.0694 16.4817 19.7527C16.5123 19.676 16.5463 19.584 16.583 19.4854C16.6697 19.252 16.771 18.9787 16.8737 18.78C16.8983 18.7316 16.925 18.6842 16.9537 18.638C17.3243 17.6894 17.8983 16.028 17.6663 15.3327C17.511 14.8674 17.2117 14.402 16.9357 14.0374C16.5997 13.756 16.3437 13.484 16.189 13.1587C15.9983 12.756 15.999 12.3354 15.9997 11.9487V11.88C15.9997 9.71471 17.8137 8.00004 19.9997 8.00004C22.1857 8.00004 23.9997 9.71471 23.9997 11.88H22.6663C22.6663 10.4967 21.4957 9.33337 19.9997 9.33337ZM18.1277 19.28L18.1217 19.2867C18.1235 19.2841 18.1258 19.2819 18.1283 19.28H18.1277Z" fill="#3E4095"/>
<path d="M3.70938 19.1079C4.49989 18.1588 4.93277 16.9627 4.93277 15.7275C4.93277 14.4924 4.49989 13.2963 3.70938 12.3472M5.41396 20.8269C6.65087 19.4236 7.33333 17.6173 7.33333 15.7467C7.33333 13.8762 6.65087 12.0699 5.41396 10.6666M2 17.4129C2.34632 16.9254 2.53238 16.3423 2.53238 15.7443C2.53238 15.1464 2.34632 14.5632 2 14.0758" stroke="#3E4095" stroke-width="1.5" stroke-linecap="round" stroke-linejoin="round"/>
</svg>
