<svg width="61" height="61" viewBox="0 0 61 61" fill="none" xmlns="http://www.w3.org/2000/svg">
<path d="M33.1271 41.4153H29.8486V45.2402H33.1271V41.4153Z" fill="#181818"/>
<path d="M33.1271 41.4153H29.8486V45.2402H33.1271V41.4153Z" fill="white" fill-opacity="0.8"/>
<g opacity="0.6">
<path d="M33.1275 41.4153H31.4883V45.2402H33.1275V41.4153Z" fill="#181818"/>
<path d="M33.1275 41.4153H31.4883V45.2402H33.1275V41.4153Z" fill="white" fill-opacity="0.5"/>
</g>
<path d="M31.8434 41.9616H31.1331C26.2066 41.9616 22.1992 37.9542 22.1992 33.0278V30.487C22.1992 30.1848 22.4435 29.9406 22.7456 29.9406C23.0478 29.9406 23.292 30.1848 23.292 30.487V33.0278C23.292 37.351 26.8093 40.8688 31.1331 40.8688H31.8439C36.1666 40.8688 39.6844 37.351 39.6844 33.0278V30.487C39.6844 30.1848 39.9287 29.9406 40.2308 29.9406C40.533 29.9406 40.7772 30.1848 40.7772 30.487V33.0278C40.7772 37.9542 36.7699 41.9616 31.8434 41.9616Z" fill="#EC3237"/>
<path d="M31.8434 41.9616H31.1331C26.2066 41.9616 22.1992 37.9542 22.1992 33.0278V30.487C22.1992 30.1848 22.4435 29.9406 22.7456 29.9406C23.0478 29.9406 23.292 30.1848 23.292 30.487V33.0278C23.292 37.351 26.8093 40.8688 31.1331 40.8688H31.8439C36.1666 40.8688 39.6844 37.351 39.6844 33.0278V30.487C39.6844 30.1848 39.9287 29.9406 40.2308 29.9406C40.533 29.9406 40.7772 30.1848 40.7772 30.487V33.0278C40.7772 37.9542 36.7699 41.9616 31.8434 41.9616Z" fill="black" fill-opacity="0.1"/>
<path d="M49.5198 49.065H13.4566C13.1544 49.065 12.9102 48.8207 12.9102 48.5186C12.9102 48.2164 13.1544 47.9722 13.4566 47.9722H49.5198C49.822 47.9722 50.0662 48.2164 50.0662 48.5186C50.0662 48.8207 49.822 49.065 49.5198 49.065Z" fill="#3E4095"/>
<path d="M49.5198 49.065H13.4566C13.1544 49.065 12.9102 48.8207 12.9102 48.5186C12.9102 48.2164 13.1544 47.9722 13.4566 47.9722H49.5198C49.822 47.9722 50.0662 48.2164 50.0662 48.5186C50.0662 48.8207 49.822 49.065 49.5198 49.065Z" fill="black" fill-opacity="0.2"/>
<path d="M37.4058 47.688V48.5186H25.3848V47.688C25.3848 46.3384 26.4831 45.2401 27.8382 45.2401H34.9579C36.313 45.2401 37.4058 46.3384 37.4058 47.688Z" fill="#3E4095"/>
<path d="M37.4058 47.688V48.5186H25.3848V47.688C25.3848 46.3384 26.4831 45.2401 27.8382 45.2401H34.9579C36.313 45.2401 37.4058 46.3384 37.4058 47.688Z" fill="white" fill-opacity="0.35"/>
<g opacity="0.6">
<path d="M37.4059 47.688V48.5186H31.4883V45.2401H34.958C36.3131 45.2401 37.4059 46.3384 37.4059 47.688Z" fill="#3E4095"/>
<path d="M37.4059 47.688V48.5186H31.4883V45.2401H34.958C36.3131 45.2401 37.4059 46.3384 37.4059 47.688Z" fill="white" fill-opacity="0.1"/>
</g>
<path d="M36.9517 20.2473V33.6235C36.9517 36.4211 34.6895 38.6832 31.8919 38.6832H31.0832C28.2856 38.6832 26.0234 36.4211 26.0234 33.6235V20.2473C26.0234 17.8485 27.6845 15.8432 29.9194 15.3241C30.2909 15.2367 30.6843 15.1875 31.0832 15.1875H31.8919C34.6895 15.1875 36.9517 17.4496 36.9517 20.2473Z" fill="#3E4095"/>
<path d="M36.9517 20.2473V33.6235C36.9517 36.4211 34.6895 38.6832 31.8919 38.6832H31.0832C28.2856 38.6832 26.0234 36.4211 26.0234 33.6235V20.2473C26.0234 17.8485 27.6845 15.8432 29.9194 15.3241C30.2909 15.2367 30.6843 15.1875 31.0832 15.1875H31.8919C34.6895 15.1875 36.9517 17.4496 36.9517 20.2473Z" fill="white" fill-opacity="0.35"/>
<g opacity="0.4">
<path d="M36.9523 20.2476V33.6238C36.9523 36.4214 34.6902 38.6836 31.8925 38.6836H31.0838C28.5212 38.6836 26.4066 36.782 26.0732 34.3123H29.0621C31.0073 34.3123 32.581 32.7386 32.581 30.7934V15.9747C32.581 15.7178 32.5537 15.4665 32.4991 15.2261C35.0126 15.5211 36.9523 17.6576 36.9523 20.2476Z" fill="#3E4095"/>
</g>
<path d="M17.8277 33.2188C17.5255 33.2188 17.2812 32.9745 17.2812 32.6724V22.8369C17.2812 22.5348 17.5255 22.2905 17.8277 22.2905C18.1298 22.2905 18.3741 22.5348 18.3741 22.8369V32.6724C18.3741 32.9745 18.1298 33.2188 17.8277 33.2188Z" fill="#3E4095"/>
<path d="M17.8277 33.2188C17.5255 33.2188 17.2812 32.9745 17.2812 32.6724V22.8369C17.2812 22.5348 17.5255 22.2905 17.8277 22.2905C18.1298 22.2905 18.3741 22.5348 18.3741 22.8369V32.6724C18.3741 32.9745 18.1298 33.2188 17.8277 33.2188Z" fill="white" fill-opacity="0.1"/>
<path d="M8.5386 32.126C8.23643 32.126 7.99219 31.8818 7.99219 31.5796V23.9298C7.99219 23.6277 8.23643 23.3834 8.5386 23.3834C8.84077 23.3834 9.08501 23.6277 9.08501 23.9298V31.5796C9.08501 31.8818 8.84077 32.126 8.5386 32.126Z" fill="#3E4095"/>
<path d="M8.5386 32.126C8.23643 32.126 7.99219 31.8818 7.99219 31.5796V23.9298C7.99219 23.6277 8.23643 23.3834 8.5386 23.3834C8.84077 23.3834 9.08501 23.6277 9.08501 23.9298V31.5796C9.08501 31.8818 8.84077 32.126 8.5386 32.126Z" fill="white" fill-opacity="0.1"/>
<path d="M13.4566 35.9509C13.1544 35.9509 12.9102 35.7067 12.9102 35.4045V19.0121C12.9102 18.7099 13.1544 18.4657 13.4566 18.4657C13.7587 18.4657 14.003 18.7099 14.003 19.0121V35.4045C14.003 35.7067 13.7587 35.9509 13.4566 35.9509Z" fill="#3E4095"/>
<path d="M13.4566 35.9509C13.1544 35.9509 12.9102 35.7067 12.9102 35.4045V19.0121C12.9102 18.7099 13.1544 18.4657 13.4566 18.4657C13.7587 18.4657 14.003 18.7099 14.003 19.0121V35.4045C14.003 35.7067 13.7587 35.9509 13.4566 35.9509Z" fill="white" fill-opacity="0.1"/>
<path d="M44.6021 33.2188C44.2999 33.2188 44.0557 32.9745 44.0557 32.6724V22.8369C44.0557 22.5348 44.2999 22.2905 44.6021 22.2905C44.9042 22.2905 45.1485 22.5348 45.1485 22.8369V32.6724C45.1485 32.9745 44.9042 33.2188 44.6021 33.2188Z" fill="#3E4095"/>
<path d="M44.6021 33.2188C44.2999 33.2188 44.0557 32.9745 44.0557 32.6724V22.8369C44.0557 22.5348 44.2999 22.2905 44.6021 22.2905C44.9042 22.2905 45.1485 22.5348 45.1485 22.8369V32.6724C45.1485 32.9745 44.9042 33.2188 44.6021 33.2188Z" fill="white" fill-opacity="0.1"/>
<path d="M53.8911 32.126C53.589 32.126 53.3447 31.8818 53.3447 31.5796V23.9298C53.3447 23.6277 53.589 23.3834 53.8911 23.3834C54.1933 23.3834 54.4376 23.6277 54.4376 23.9298V31.5796C54.4376 31.8818 54.1933 32.126 53.8911 32.126Z" fill="#3E4095"/>
<path d="M53.8911 32.126C53.589 32.126 53.3447 31.8818 53.3447 31.5796V23.9298C53.3447 23.6277 53.589 23.3834 53.8911 23.3834C54.1933 23.3834 54.4376 23.6277 54.4376 23.9298V31.5796C54.4376 31.8818 54.1933 32.126 53.8911 32.126Z" fill="white" fill-opacity="0.1"/>
<path d="M48.9732 35.9509C48.671 35.9509 48.4268 35.7067 48.4268 35.4045V19.0121C48.4268 18.7099 48.671 18.4657 48.9732 18.4657C49.2753 18.4657 49.5196 18.7099 49.5196 19.0121V35.4045C49.5196 35.7067 49.2753 35.9509 48.9732 35.9509Z" fill="#3E4095"/>
<path d="M48.9732 35.9509C48.671 35.9509 48.4268 35.7067 48.4268 35.4045V19.0121C48.4268 18.7099 48.671 18.4657 48.9732 18.4657C49.2753 18.4657 49.5196 18.7099 49.5196 19.0121V35.4045C49.5196 35.7067 49.2753 35.9509 48.9732 35.9509Z" fill="white" fill-opacity="0.1"/>
<path d="M38.0446 25.9464V27.378C38.0446 27.8861 37.6293 28.3014 37.1211 28.3014H25.8541C25.3459 28.3014 24.9307 27.8861 24.9307 27.378V25.9464C24.9307 25.4382 25.3459 25.0229 25.8541 25.0229H37.1211C37.6293 25.0229 38.0446 25.4382 38.0446 25.9464Z" fill="#EC3237"/>
<path d="M38.0446 25.9464V27.378C38.0446 27.8861 37.6293 28.3014 37.1211 28.3014H25.8541C25.3459 28.3014 24.9307 27.8861 24.9307 27.378V25.9464C24.9307 25.4382 25.3459 25.0229 25.8541 25.0229H37.1211C37.6293 25.0229 38.0446 25.4382 38.0446 25.9464Z" fill="black" fill-opacity="0.05"/>
<path d="M38.0452 25.9464V27.378C38.0452 27.8861 37.6299 28.3014 37.1217 28.3014H32.5811V25.0229H37.1217C37.6299 25.0229 38.0452 25.4382 38.0452 25.9464Z" fill="#9B2C12"/>
<path d="M34.2195 22.8372H28.7554C28.4532 22.8372 28.209 22.593 28.209 22.2908C28.209 21.9886 28.4532 21.7444 28.7554 21.7444H34.2195C34.5217 21.7444 34.7659 21.9886 34.7659 22.2908C34.7659 22.593 34.5217 22.8372 34.2195 22.8372Z" fill="#EC3237"/>
<path d="M34.2195 22.8372H28.7554C28.4532 22.8372 28.209 22.593 28.209 22.2908C28.209 21.9886 28.4532 21.7444 28.7554 21.7444H34.2195C34.5217 21.7444 34.7659 21.9886 34.7659 22.2908C34.7659 22.593 34.5217 22.8372 34.2195 22.8372Z" fill="black" fill-opacity="0.05"/>
<path d="M33.3089 20.1052H29.6665C29.3644 20.1052 29.1201 19.8609 29.1201 19.5587C29.1201 19.2566 29.3644 19.0123 29.6665 19.0123H33.3089C33.6111 19.0123 33.8553 19.2566 33.8553 19.5587C33.8553 19.8609 33.6111 20.1052 33.3089 20.1052Z" fill="#EC3237"/>
<path d="M33.3089 20.1052H29.6665C29.3644 20.1052 29.1201 19.8609 29.1201 19.5587C29.1201 19.2566 29.3644 19.0123 29.6665 19.0123H33.3089C33.6111 19.0123 33.8553 19.2566 33.8553 19.5587C33.8553 19.8609 33.6111 20.1052 33.3089 20.1052Z" fill="black" fill-opacity="0.05"/>
<path d="M34.2195 32.1263H28.7554C28.4532 32.1263 28.209 31.882 28.209 31.5799C28.209 31.2777 28.4532 31.0334 28.7554 31.0334H34.2195C34.5217 31.0334 34.7659 31.2777 34.7659 31.5799C34.7659 31.882 34.5217 32.1263 34.2195 32.1263Z" fill="#EC3237"/>
<path d="M34.2195 32.1263H28.7554C28.4532 32.1263 28.209 31.882 28.209 31.5799C28.209 31.2777 28.4532 31.0334 28.7554 31.0334H34.2195C34.5217 31.0334 34.7659 31.2777 34.7659 31.5799C34.7659 31.882 34.5217 32.1263 34.2195 32.1263Z" fill="black" fill-opacity="0.05"/>
<path d="M33.3089 34.8583H29.6665C29.3644 34.8583 29.1201 34.6141 29.1201 34.3119C29.1201 34.0097 29.3644 33.7655 29.6665 33.7655H33.3089C33.6111 33.7655 33.8553 34.0097 33.8553 34.3119C33.8553 34.6141 33.6111 34.8583 33.3089 34.8583Z" fill="#EC3237"/>
<path d="M33.3089 34.8583H29.6665C29.3644 34.8583 29.1201 34.6141 29.1201 34.3119C29.1201 34.0097 29.3644 33.7655 29.6665 33.7655H33.3089C33.6111 33.7655 33.8553 34.0097 33.8553 34.3119C33.8553 34.6141 33.6111 34.8583 33.3089 34.8583Z" fill="black" fill-opacity="0.05"/>
</svg>