<svg width="32" height="32" viewBox="0 0 32 32" fill="none" xmlns="http://www.w3.org/2000/svg">
<path d="M8.00001 19.2V16H11.2V19.2H8.00001ZM24 7.19045C23.9975 6.55559 23.7435 5.94761 23.2937 5.49959C22.8439 5.05158 22.2349 4.80004 21.6 4.80005H5.47681C4.84029 4.80005 4.22984 5.05291 3.77976 5.50299C3.32967 5.95308 3.07681 6.56353 3.07681 7.20005V21.6C3.07681 22.6609 3.49824 23.6783 4.24839 24.4285C4.99853 25.1786 6.01595 25.6 7.07681 25.6H24.9232C25.9841 25.6 27.0015 25.1786 27.7516 24.4285C28.5018 23.6783 28.9232 22.6609 28.9232 21.6V12C28.9232 11.3635 28.6704 10.7531 28.2203 10.303C27.7702 9.8529 27.1597 9.60005 26.5232 9.60005H25.6V21.168C25.6 21.3802 25.5157 21.5837 25.3657 21.7337C25.2157 21.8838 25.0122 21.968 24.8 21.968C24.5878 21.968 24.3844 21.8838 24.2343 21.7337C24.0843 21.5837 24 21.3802 24 21.168V7.19045ZM6.40001 10.4C6.40001 10.1879 6.4843 9.98439 6.63433 9.83436C6.78436 9.68433 6.98784 9.60005 7.20001 9.60005H20C20.2122 9.60005 20.4157 9.68433 20.5657 9.83436C20.7157 9.98439 20.8 10.1879 20.8 10.4C20.8 10.6122 20.7157 10.8157 20.5657 10.9657C20.4157 11.1158 20.2122 11.2 20 11.2H7.20001C6.98784 11.2 6.78436 11.1158 6.63433 10.9657C6.4843 10.8157 6.40001 10.6122 6.40001 10.4ZM15.2 14.4H20C20.2122 14.4 20.4157 14.4843 20.5657 14.6344C20.7157 14.7844 20.8 14.9879 20.8 15.2C20.8 15.4122 20.7157 15.6157 20.5657 15.7657C20.4157 15.9158 20.2122 16 20 16H15.2C14.9878 16 14.7844 15.9158 14.6343 15.7657C14.4843 15.6157 14.4 15.4122 14.4 15.2C14.4 14.9879 14.4843 14.7844 14.6343 14.6344C14.7844 14.4843 14.9878 14.4 15.2 14.4ZM14.4 20C14.4 19.7879 14.4843 19.5844 14.6343 19.4344C14.7844 19.2843 14.9878 19.2 15.2 19.2H20C20.2122 19.2 20.4157 19.2843 20.5657 19.4344C20.7157 19.5844 20.8 19.7879 20.8 20C20.8 20.2122 20.7157 20.4157 20.5657 20.5657C20.4157 20.7158 20.2122 20.8 20 20.8H15.2C14.9878 20.8 14.7844 20.7158 14.6343 20.5657C14.4843 20.4157 14.4 20.2122 14.4 20ZM7.20001 14.4H12C12.2122 14.4 12.4157 14.4843 12.5657 14.6344C12.7157 14.7844 12.8 14.9879 12.8 15.2V20C12.8 20.2122 12.7157 20.4157 12.5657 20.5657C12.4157 20.7158 12.2122 20.8 12 20.8H7.20001C6.98784 20.8 6.78436 20.7158 6.63433 20.5657C6.4843 20.4157 6.40001 20.2122 6.40001 20V15.2C6.40001 14.9879 6.4843 14.7844 6.63433 14.6344C6.78436 14.4843 6.98784 14.4 7.20001 14.4Z" fill="#181818"/>
<path d="M8.00001 19.2V16H11.2V19.2H8.00001ZM24 7.19045C23.9975 6.55559 23.7435 5.94761 23.2937 5.49959C22.8439 5.05158 22.2349 4.80004 21.6 4.80005H5.47681C4.84029 4.80005 4.22984 5.05291 3.77976 5.50299C3.32967 5.95308 3.07681 6.56353 3.07681 7.20005V21.6C3.07681 22.6609 3.49824 23.6783 4.24839 24.4285C4.99853 25.1786 6.01595 25.6 7.07681 25.6H24.9232C25.9841 25.6 27.0015 25.1786 27.7516 24.4285C28.5018 23.6783 28.9232 22.6609 28.9232 21.6V12C28.9232 11.3635 28.6704 10.7531 28.2203 10.303C27.7702 9.8529 27.1597 9.60005 26.5232 9.60005H25.6V21.168C25.6 21.3802 25.5157 21.5837 25.3657 21.7337C25.2157 21.8838 25.0122 21.968 24.8 21.968C24.5878 21.968 24.3844 21.8838 24.2343 21.7337C24.0843 21.5837 24 21.3802 24 21.168V7.19045ZM6.40001 10.4C6.40001 10.1879 6.4843 9.98439 6.63433 9.83436C6.78436 9.68433 6.98784 9.60005 7.20001 9.60005H20C20.2122 9.60005 20.4157 9.68433 20.5657 9.83436C20.7157 9.98439 20.8 10.1879 20.8 10.4C20.8 10.6122 20.7157 10.8157 20.5657 10.9657C20.4157 11.1158 20.2122 11.2 20 11.2H7.20001C6.98784 11.2 6.78436 11.1158 6.63433 10.9657C6.4843 10.8157 6.40001 10.6122 6.40001 10.4ZM15.2 14.4H20C20.2122 14.4 20.4157 14.4843 20.5657 14.6344C20.7157 14.7844 20.8 14.9879 20.8 15.2C20.8 15.4122 20.7157 15.6157 20.5657 15.7657C20.4157 15.9158 20.2122 16 20 16H15.2C14.9878 16 14.7844 15.9158 14.6343 15.7657C14.4843 15.6157 14.4 15.4122 14.4 15.2C14.4 14.9879 14.4843 14.7844 14.6343 14.6344C14.7844 14.4843 14.9878 14.4 15.2 14.4ZM14.4 20C14.4 19.7879 14.4843 19.5844 14.6343 19.4344C14.7844 19.2843 14.9878 19.2 15.2 19.2H20C20.2122 19.2 20.4157 19.2843 20.5657 19.4344C20.7157 19.5844 20.8 19.7879 20.8 20C20.8 20.2122 20.7157 20.4157 20.5657 20.5657C20.4157 20.7158 20.2122 20.8 20 20.8H15.2C14.9878 20.8 14.7844 20.7158 14.6343 20.5657C14.4843 20.4157 14.4 20.2122 14.4 20ZM7.20001 14.4H12C12.2122 14.4 12.4157 14.4843 12.5657 14.6344C12.7157 14.7844 12.8 14.9879 12.8 15.2V20C12.8 20.2122 12.7157 20.4157 12.5657 20.5657C12.4157 20.7158 12.2122 20.8 12 20.8H7.20001C6.98784 20.8 6.78436 20.7158 6.63433 20.5657C6.4843 20.4157 6.40001 20.2122 6.40001 20V15.2C6.40001 14.9879 6.4843 14.7844 6.63433 14.6344C6.78436 14.4843 6.98784 14.4 7.20001 14.4Z" fill="white" fill-opacity="0.5"/>
</svg>
