<svg width="38" height="42" viewBox="0 0 38 42" fill="none" xmlns="http://www.w3.org/2000/svg">
<g id="Group">
<g id="Group_2">
<g id="Vector">
<path d="M19 36.3519C19 39.9613 14.93 41.1438 12.3519 39.2738C9.53998 37.2388 10.6881 34.7431 10.6881 34.7431C5.70373 34.5713 6.90685 29.9306 6.90685 29.9306C1.2556 28.7825 4.21185 23.6538 4.21185 23.6538C2.66498 23.3925 0.856854 21.7219 1.33123 18.58C1.81248 15.4038 5.46998 14.8538 5.46998 14.8538C5.46998 14.8538 3.17373 12.9631 4.65873 9.73189C5.97873 6.85126 9.53998 6.88564 9.53998 6.88564C9.53998 6.88564 9.16873 3.50314 12.29 2.24501C13.7337 1.66064 15.095 1.80501 16.2156 2.18314C17.9069 2.75376 19 4.40376 19 6.19126V37.1494" stroke="#EC3237" stroke-width="2" stroke-miterlimit="10" stroke-linecap="round" stroke-linejoin="round"/>
<path d="M19 36.3519C19 39.9613 14.93 41.1438 12.3519 39.2738C9.53998 37.2388 10.6881 34.7431 10.6881 34.7431C5.70373 34.5713 6.90685 29.9306 6.90685 29.9306C1.2556 28.7825 4.21185 23.6538 4.21185 23.6538C2.66498 23.3925 0.856854 21.7219 1.33123 18.58C1.81248 15.4038 5.46998 14.8538 5.46998 14.8538C5.46998 14.8538 3.17373 12.9631 4.65873 9.73189C5.97873 6.85126 9.53998 6.88564 9.53998 6.88564C9.53998 6.88564 9.16873 3.50314 12.29 2.24501C13.7337 1.66064 15.095 1.80501 16.2156 2.18314C17.9069 2.75376 19 4.40376 19 6.19126V37.1494" stroke="black" stroke-opacity="0.1" stroke-width="2" stroke-miterlimit="10" stroke-linecap="round" stroke-linejoin="round"/>
</g>
<g id="Vector_2">
<path d="M5.46997 14.8538C5.46997 14.8538 8.36435 13.9944 10.5162 16.7169" stroke="#EC3237" stroke-width="2" stroke-miterlimit="10" stroke-linecap="round" stroke-linejoin="round"/>
<path d="M5.46997 14.8538C5.46997 14.8538 8.36435 13.9944 10.5162 16.7169" stroke="black" stroke-opacity="0.1" stroke-width="2" stroke-miterlimit="10" stroke-linecap="round" stroke-linejoin="round"/>
</g>
<g id="Vector_3">
<path d="M6.90674 29.9306C6.90674 29.9306 7.06486 27.6963 10.5161 27.3938" stroke="#EC3237" stroke-width="2" stroke-miterlimit="10" stroke-linecap="round" stroke-linejoin="round"/>
<path d="M6.90674 29.9306C6.90674 29.9306 7.06486 27.6963 10.5161 27.3938" stroke="black" stroke-opacity="0.1" stroke-width="2" stroke-miterlimit="10" stroke-linecap="round" stroke-linejoin="round"/>
</g>
<g id="Vector_4">
<path d="M8.70801 21.4606C8.70801 21.4606 10.5711 23.5231 13.878 22.4506" stroke="#EC3237" stroke-width="2" stroke-miterlimit="10" stroke-linecap="round" stroke-linejoin="round"/>
<path d="M8.70801 21.4606C8.70801 21.4606 10.5711 23.5231 13.878 22.4506" stroke="black" stroke-opacity="0.1" stroke-width="2" stroke-miterlimit="10" stroke-linecap="round" stroke-linejoin="round"/>
</g>
<g id="Vector_5">
<path d="M9.54004 6.88564C9.54004 6.88564 12.5032 6.50064 13.885 9.25064" stroke="#EC3237" stroke-width="2" stroke-miterlimit="10" stroke-linecap="round" stroke-linejoin="round"/>
<path d="M9.54004 6.88564C9.54004 6.88564 12.5032 6.50064 13.885 9.25064" stroke="black" stroke-opacity="0.1" stroke-width="2" stroke-miterlimit="10" stroke-linecap="round" stroke-linejoin="round"/>
</g>
<g id="Vector_6">
<path d="M14.7444 13.0319C14.7444 13.0319 19 13.1213 19 18.6625" stroke="#EC3237" stroke-width="2" stroke-miterlimit="10" stroke-linecap="round" stroke-linejoin="round"/>
<path d="M14.7444 13.0319C14.7444 13.0319 19 13.1213 19 18.6625" stroke="black" stroke-opacity="0.1" stroke-width="2" stroke-miterlimit="10" stroke-linecap="round" stroke-linejoin="round"/>
</g>
<g id="Vector_7">
<path d="M18.9999 34.2275C18.9999 34.2275 18.6286 30.075 12.9224 30.9894" stroke="#EC3237" stroke-width="2" stroke-miterlimit="10" stroke-linecap="round" stroke-linejoin="round"/>
<path d="M18.9999 34.2275C18.9999 34.2275 18.6286 30.075 12.9224 30.9894" stroke="black" stroke-opacity="0.1" stroke-width="2" stroke-miterlimit="10" stroke-linecap="round" stroke-linejoin="round"/>
</g>
<g id="Vector_8">
<path d="M15.5005 25.6888C15.5005 25.6888 15.1224 29.8413 17.4324 31.67" stroke="#EC3237" stroke-width="2" stroke-miterlimit="10" stroke-linecap="round" stroke-linejoin="round"/>
<path d="M15.5005 25.6888C15.5005 25.6888 15.1224 29.8413 17.4324 31.67" stroke="black" stroke-opacity="0.1" stroke-width="2" stroke-miterlimit="10" stroke-linecap="round" stroke-linejoin="round"/>
</g>
<g id="Vector_9">
<path d="M5.62816 20.5875C5.62816 20.5875 5.15379 22.1207 4.21191 23.6538" stroke="#EC3237" stroke-width="2" stroke-miterlimit="10" stroke-linecap="round" stroke-linejoin="round"/>
<path d="M5.62816 20.5875C5.62816 20.5875 5.15379 22.1207 4.21191 23.6538" stroke="black" stroke-opacity="0.1" stroke-width="2" stroke-miterlimit="10" stroke-linecap="round" stroke-linejoin="round"/>
</g>
<g id="Vector_10">
<path d="M9.51252 15.72C9.51252 15.72 8.08252 14.1525 9.3544 11.7463" stroke="#EC3237" stroke-width="2" stroke-miterlimit="10" stroke-linecap="round" stroke-linejoin="round"/>
<path d="M9.51252 15.72C9.51252 15.72 8.08252 14.1525 9.3544 11.7463" stroke="black" stroke-opacity="0.1" stroke-width="2" stroke-miterlimit="10" stroke-linecap="round" stroke-linejoin="round"/>
</g>
<g id="Vector_11">
<path d="M19 36.3519C19 39.9613 23.07 41.1438 25.6481 39.2738C28.46 37.2388 27.3119 34.7431 27.3119 34.7431C32.2962 34.5713 31.0931 29.9306 31.0931 29.9306C36.7444 28.7825 33.7881 23.6538 33.7881 23.6538C35.335 23.3925 37.1431 21.7219 36.6687 18.58C36.1875 15.4038 32.53 14.8538 32.53 14.8538C32.53 14.8538 34.8262 12.9631 33.3412 9.73189C32.0212 6.85126 28.46 6.88564 28.46 6.88564C28.46 6.88564 28.8312 3.50314 25.71 2.24501C24.2662 1.66064 22.905 1.80501 21.7844 2.18314C20.0931 2.75376 19 4.40376 19 6.19126V37.1494" stroke="#EC3237" stroke-width="2" stroke-miterlimit="10" stroke-linecap="round" stroke-linejoin="round"/>
<path d="M19 36.3519C19 39.9613 23.07 41.1438 25.6481 39.2738C28.46 37.2388 27.3119 34.7431 27.3119 34.7431C32.2962 34.5713 31.0931 29.9306 31.0931 29.9306C36.7444 28.7825 33.7881 23.6538 33.7881 23.6538C35.335 23.3925 37.1431 21.7219 36.6687 18.58C36.1875 15.4038 32.53 14.8538 32.53 14.8538C32.53 14.8538 34.8262 12.9631 33.3412 9.73189C32.0212 6.85126 28.46 6.88564 28.46 6.88564C28.46 6.88564 28.8312 3.50314 25.71 2.24501C24.2662 1.66064 22.905 1.80501 21.7844 2.18314C20.0931 2.75376 19 4.40376 19 6.19126V37.1494" stroke="black" stroke-opacity="0.1" stroke-width="2" stroke-miterlimit="10" stroke-linecap="round" stroke-linejoin="round"/>
</g>
</g>
<g id="Group_3">
<g id="Vector_12">
<path d="M28.8656 17.4181L27.4838 11.6431C27.3738 11.1894 26.9681 10.8731 26.5075 10.8731H25.2219C24.7544 10.8731 24.3556 11.1894 24.2456 11.6431L22.8638 17.4181" stroke="#EC3237" stroke-width="2" stroke-miterlimit="10" stroke-linecap="round" stroke-linejoin="round"/>
<path d="M28.8656 17.4181L27.4838 11.6431C27.3738 11.1894 26.9681 10.8731 26.5075 10.8731H25.2219C24.7544 10.8731 24.3556 11.1894 24.2456 11.6431L22.8638 17.4181" stroke="black" stroke-opacity="0.1" stroke-width="2" stroke-miterlimit="10" stroke-linecap="round" stroke-linejoin="round"/>
</g>
<g id="Vector_13">
<path d="M23.6062 14.2969H28.1162" stroke="#EC3237" stroke-width="2" stroke-miterlimit="10" stroke-linecap="round" stroke-linejoin="round"/>
<path d="M23.6062 14.2969H28.1162" stroke="black" stroke-opacity="0.1" stroke-width="2" stroke-miterlimit="10" stroke-linecap="round" stroke-linejoin="round"/>
</g>
</g>
<g id="Group_4">
<g id="Vector_14">
<path d="M22.3826 21.6256H29.3332" stroke="#EC3237" stroke-width="2" stroke-miterlimit="10" stroke-linecap="round" stroke-linejoin="round"/>
<path d="M22.3826 21.6256H29.3332" stroke="black" stroke-opacity="0.1" stroke-width="2" stroke-miterlimit="10" stroke-linecap="round" stroke-linejoin="round"/>
</g>
<g id="Vector_15">
<path d="M28.1437 21.6256C28.1437 21.6256 27.9581 26.1975 23.1318 28.1638" stroke="#EC3237" stroke-width="2" stroke-miterlimit="10" stroke-linecap="round" stroke-linejoin="round"/>
<path d="M28.1437 21.6256C28.1437 21.6256 27.9581 26.1975 23.1318 28.1638" stroke="black" stroke-opacity="0.1" stroke-width="2" stroke-miterlimit="10" stroke-linecap="round" stroke-linejoin="round"/>
</g>
<g id="Vector_16">
<path d="M23.9912 23.3857C23.9912 23.3857 25.3318 27.2907 28.7625 28.1707" stroke="#EC3237" stroke-width="2" stroke-miterlimit="10" stroke-linecap="round" stroke-linejoin="round"/>
<path d="M23.9912 23.3857C23.9912 23.3857 25.3318 27.2907 28.7625 28.1707" stroke="black" stroke-opacity="0.1" stroke-width="2" stroke-miterlimit="10" stroke-linecap="round" stroke-linejoin="round"/>
</g>
<g id="Vector_17">
<path d="M25.8613 21.6256V20.3194" stroke="#EC3237" stroke-width="2" stroke-miterlimit="10" stroke-linecap="round" stroke-linejoin="round"/>
<path d="M25.8613 21.6256V20.3194" stroke="black" stroke-opacity="0.1" stroke-width="2" stroke-miterlimit="10" stroke-linecap="round" stroke-linejoin="round"/>
</g>
</g>
</g>
</svg>
