<svg width="68" height="68" viewBox="0 0 68 68" fill="none" xmlns="http://www.w3.org/2000/svg">
<rect width="68" height="68" rx="34" fill="white"/>
<path d="M48.6673 23L28.5007 43.1667L19.334 34" stroke="#62A109" stroke-width="8" stroke-linecap="round" stroke-linejoin="round"/>
</svg>
