<svg width="9" height="15" viewBox="0 0 9 15" fill="none" xmlns="http://www.w3.org/2000/svg">
<g id="_Layer_" clip-path="url(#clip0_5709_3887)">
<path id="Vector" d="M8.63629 6.4108C8.60694 6.34785 8.54597 6.30797 8.47927 6.30797H4.76976L5.9669 0.982678C5.98557 0.899031 5.94631 0.812913 5.87207 0.775854C5.79817 0.73856 5.70943 0.76056 5.65881 0.828207L0.0510724 8.34268C0.0100169 8.39785 0.00248068 8.47256 0.0318382 8.53538C0.0611957 8.59833 0.12216 8.63821 0.188862 8.63821H3.89252L2.69516 13.965C2.68425 14.0051 2.68684 14.0487 2.70315 14.088C2.72767 14.1471 2.7802 14.1883 2.84127 14.1964C2.8487 14.1975 2.85601 14.1979 2.86343 14.1979C2.91675 14.1979 2.9677 14.1722 3.00122 14.1276L8.61695 6.6035C8.658 6.54833 8.66565 6.4735 8.63618 6.4108H8.63629Z" fill="#B3B3B3"/>
</g>
<defs>
<clipPath id="clip0_5709_3887">
<rect width="8.64" height="13.44" fill="white" transform="translate(0.0133362 0.759766)"/>
</clipPath>
</defs>
</svg>
