<svg xmlns="http://www.w3.org/2000/svg" width="73" height="72" viewBox="0 0 73 72" fill="none">
  <g clip-path="url(#clip0_1310_241)">
    <path
      d="M71.3849 37.0088C46.247 41.3154 41.3042 46.224 36.9676 71.1877C36.797 72.1705 35.3754 72.1705 35.2047 71.1877C30.8681 46.224 25.9253 41.3154 0.787395 37.0088C-0.202244 36.8394 -0.202244 35.4276 0.787395 35.2582C25.9253 30.9516 30.8681 26.043 35.2047 1.07931C35.3754 0.0965287 36.797 0.0965287 36.9676 1.07931C41.3042 26.043 46.247 30.9516 71.3849 35.2582C72.3746 35.4276 72.3746 36.8394 71.3849 37.0088Z"
      fill="#1C1C1C" />
    <path
      d="M71.3849 37.0088C46.247 41.3154 41.3042 46.224 36.9676 71.1877C36.797 72.1705 35.3754 72.1705 35.2047 71.1877C30.8681 46.224 25.9253 41.3154 0.787395 37.0088C-0.202244 36.8394 -0.202244 35.4276 0.787395 35.2582C25.9253 30.9516 30.8681 26.043 35.2047 1.07931C35.3754 0.0965287 36.797 0.0965287 36.9676 1.07931C41.3042 26.043 46.247 30.9516 71.3849 35.2582C72.3746 35.4276 72.3746 36.8394 71.3849 37.0088Z"
      stroke="#FAFAFA" stroke-width="0.0898038" stroke-miterlimit="10" />
  </g>
  <defs>
    <clipPath id="clip0_1310_241">
      <rect width="72.1727" height="71.6726" fill="white" transform="translate(0 0.299072)" />
    </clipPath>
  </defs>
</svg>