<svg width="270" height="223" viewBox="0 0 270 223" fill="none" xmlns="http://www.w3.org/2000/svg">
<g filter="url(#filter0_f_71_10917)">
<ellipse cx="135.125" cy="167.694" rx="100.92" ry="12.1009" fill="url(#paint0_radial_71_10917)" fill-opacity="0.6"/>
</g>
<path d="M50.426 77.4713L59.9578 96.7825C60.2406 97.355 60.6582 97.8503 61.1747 98.2258C61.6913 98.6012 62.2913 98.8456 62.9231 98.9379L84.2291 102.01C84.9505 102.121 85.6271 102.429 86.1835 102.902C86.74 103.374 87.1544 103.991 87.3806 104.685C87.6068 105.379 87.6359 106.122 87.4648 106.832C87.2936 107.541 86.9289 108.189 86.4112 108.704L71.0158 123.731C70.5579 124.177 70.2156 124.727 70.0185 125.335C69.8214 125.943 69.7754 126.589 69.8845 127.219L73.5259 148.438C73.6507 149.163 73.57 149.909 73.2928 150.591C73.0156 151.273 72.553 151.864 71.9574 152.296C71.3617 152.729 70.6569 152.986 69.9227 153.039C69.1884 153.091 68.4541 152.937 67.8028 152.594L48.7459 142.554C48.1801 142.257 47.5508 142.102 46.9119 142.102C46.273 142.102 45.6436 142.257 45.0778 142.554L26.0209 152.594C25.3698 152.936 24.6363 153.088 23.9032 153.034C23.1701 152.981 22.4665 152.723 21.872 152.291C21.2774 151.859 20.8156 151.269 20.5386 150.588C20.2617 149.907 20.1806 149.162 20.3045 148.438L23.9392 127.219C24.0484 126.589 24.0024 125.943 23.8053 125.335C23.6082 124.727 23.2658 124.177 22.808 123.731L7.41253 108.704C6.89483 108.189 6.5301 107.541 6.35895 106.832C6.18781 106.122 6.21697 105.379 6.44318 104.685C6.66939 103.991 7.08379 103.374 7.64021 102.902C8.19663 102.429 8.87323 102.121 9.59467 102.01L30.9006 98.9178C31.5325 98.8255 32.1325 98.5811 32.649 98.2057C33.1655 97.8302 33.5831 97.335 33.8659 96.7624L43.3977 77.4512C43.7294 76.8036 44.2338 76.2604 44.8551 75.8818C45.4765 75.5032 46.1904 75.3038 46.918 75.3059C47.6456 75.308 48.3585 75.5114 48.9776 75.8936C49.5967 76.2757 50.0981 76.8218 50.426 77.4713Z" fill="url(#paint1_radial_71_10917)"/>
<g filter="url(#filter1_di_71_10917)">
<path d="M50.426 71.4612L59.9578 90.7725C60.2406 91.345 60.6582 91.8403 61.1747 92.2158C61.6913 92.5912 62.2913 92.8356 62.9231 92.9278L84.2291 96.0002C84.9505 96.1107 85.6271 96.4193 86.1835 96.8916C86.74 97.364 87.1544 97.9815 87.3806 98.6754C87.6068 99.3693 87.6359 100.112 87.4648 100.822C87.2936 101.531 86.9289 102.179 86.4112 102.694L71.0158 117.721C70.5579 118.167 70.2156 118.717 70.0185 119.325C69.8214 119.933 69.7754 120.579 69.8845 121.209L73.5259 142.428C73.6507 143.153 73.57 143.899 73.2928 144.581C73.0156 145.263 72.553 145.854 71.9574 146.286C71.3617 146.719 70.6569 146.976 69.9227 147.029C69.1884 147.081 68.4541 146.927 67.8028 146.584L48.7459 136.544C48.1801 136.247 47.5508 136.092 46.9119 136.092C46.273 136.092 45.6436 136.247 45.0778 136.544L26.0209 146.584C25.3698 146.926 24.6363 147.078 23.9032 147.024C23.1701 146.971 22.4665 146.713 21.872 146.281C21.2774 145.849 20.8156 145.259 20.5386 144.578C20.2617 143.897 20.1806 143.152 20.3045 142.428L23.9392 121.209C24.0484 120.579 24.0024 119.933 23.8053 119.325C23.6082 118.717 23.2658 118.167 22.808 117.721L7.41253 102.694C6.89483 102.179 6.5301 101.531 6.35895 100.822C6.18781 100.112 6.21697 99.3693 6.44318 98.6754C6.66939 97.9815 7.08379 97.364 7.64021 96.8916C8.19663 96.4193 8.87323 96.1107 9.59467 96.0002L30.9006 92.9078C31.5325 92.8155 32.1325 92.5711 32.649 92.1957C33.1655 91.8202 33.5831 91.3249 33.8659 90.7524L43.3977 71.4412C43.7294 70.7936 44.2338 70.2504 44.8551 69.8718C45.4765 69.4931 46.1904 69.2938 46.918 69.2959C47.6456 69.298 48.3585 69.5014 48.9776 69.8835C49.5967 70.2657 50.0981 70.8118 50.426 71.4612Z" fill="url(#paint2_radial_71_10917)"/>
<path d="M59.5095 90.9939L59.5095 90.9938L49.9797 71.6866C49.9794 71.686 49.9791 71.6854 49.9788 71.6849C49.6924 71.1185 49.255 70.6424 48.715 70.309C48.1743 69.9753 47.5519 69.7977 46.9166 69.7959C46.2813 69.7941 45.6578 69.9681 45.1153 70.2987C44.5738 70.6287 44.134 71.1019 43.8443 71.666C43.8438 71.667 43.8433 71.6681 43.8427 71.6691L34.3143 90.9737L34.3142 90.9738C33.9956 91.619 33.525 92.1771 32.943 92.6001C32.3609 93.0232 31.6849 93.2985 30.9729 93.4025L30.9724 93.4026L9.67037 96.4945C9.66972 96.4946 9.66907 96.4947 9.66842 96.4948C9.03921 96.5915 8.44913 96.8608 7.96378 97.2728L7.64021 96.8916L7.96378 97.2728C7.47792 97.6853 7.11608 98.2244 6.91856 98.8303C6.72103 99.4363 6.69557 100.085 6.84501 100.705C6.99428 101.323 7.31218 101.889 7.76338 102.338C7.76392 102.338 7.76445 102.339 7.76498 102.339L23.1567 117.363L59.5095 90.9939ZM59.5095 90.9939C59.8281 91.639 60.2987 92.1972 60.8808 92.6202C61.4628 93.0433 62.1389 93.3186 62.8509 93.4226L62.8518 93.4227M59.5095 90.9939L62.8518 93.4227M62.8518 93.4227L84.1534 96.4945C84.1541 96.4946 84.1548 96.4947 84.1555 96.4948C84.7846 96.5916 85.3747 96.8609 85.86 97.2728C86.3458 97.6853 86.7077 98.2244 86.9052 98.8303C87.1027 99.4363 87.1282 100.085 86.9787 100.705C86.8295 101.323 86.5117 101.888 86.0606 102.337C86.06 102.338 86.0594 102.339 86.0588 102.339L70.6671 117.363L62.8518 93.4227ZM73.0331 142.512L73.0331 142.512L69.3919 121.294L69.3917 121.293C69.2689 120.584 69.3208 119.855 69.5429 119.171C69.765 118.486 70.1507 117.866 70.6665 117.363L73.0331 142.512ZM73.0331 142.512C73.1422 143.146 73.0716 143.797 72.8296 144.393C72.5875 144.988 72.1836 145.504 71.6635 145.882C71.1435 146.259 70.528 146.484 69.8869 146.53C69.2458 146.576 68.6045 146.442 68.0359 146.142L48.979 136.101L48.9781 136.101M73.0331 142.512L48.9781 136.101M48.9781 136.101C48.3407 135.767 47.6317 135.592 46.9119 135.592C46.1921 135.592 45.4831 135.767 44.8456 136.101L44.8447 136.101M48.9781 136.101L44.8447 136.101M44.8447 136.101L25.7888 146.141M44.8447 136.101L25.7888 146.141M25.7888 146.141L25.7879 146.142C25.2196 146.44 24.5795 146.572 23.9396 146.526C23.2995 146.479 22.6852 146.254 22.166 145.877C21.6469 145.499 21.2436 144.984 21.0018 144.389C20.76 143.795 20.6892 143.145 20.7974 142.512C20.7974 142.512 20.7974 142.512 20.7974 142.512L24.4319 121.294C24.4319 121.294 24.4319 121.294 24.4319 121.294C24.5549 120.584 24.503 119.855 24.2809 119.171C24.0588 118.486 23.6731 117.866 23.1572 117.363L25.7888 146.141Z" stroke="white"/>
</g>
<path d="M139.22 37.746L152.279 64.2042C152.667 64.9886 153.239 65.6672 153.947 66.1816C154.654 66.696 155.476 67.0308 156.342 67.1572L185.533 71.3667C186.522 71.5181 187.449 71.9409 188.211 72.588C188.973 73.2351 189.541 74.0811 189.851 75.0319C190.161 75.9826 190.201 77.0007 189.966 77.9728C189.732 78.9448 189.232 79.8327 188.523 80.5376L167.43 101.126C166.802 101.737 166.333 102.491 166.063 103.324C165.793 104.156 165.73 105.042 165.88 105.904L170.869 134.976C171.04 135.97 170.929 136.992 170.549 137.927C170.17 138.861 169.536 139.67 168.72 140.263C167.904 140.856 166.938 141.208 165.932 141.28C164.926 141.352 163.92 141.142 163.028 140.671L136.918 126.915C136.143 126.509 135.281 126.296 134.405 126.296C133.53 126.296 132.668 126.509 131.892 126.915L105.783 140.671C104.891 141.139 103.886 141.348 102.881 141.274C101.877 141.201 100.913 140.848 100.098 140.256C99.2837 139.664 98.6509 138.855 98.2715 137.922C97.892 136.989 97.7809 135.969 97.9507 134.976L102.931 105.904C103.08 105.042 103.017 104.156 102.747 103.324C102.477 102.491 102.008 101.737 101.381 101.126L80.2875 80.5376C79.5782 79.8327 79.0785 78.9448 78.844 77.9728C78.6095 77.0007 78.6494 75.9826 78.9594 75.0319C79.2693 74.0811 79.8371 73.2351 80.5994 72.588C81.3618 71.9409 82.2888 71.5181 83.2772 71.3667L112.468 67.1297C113.334 67.0033 114.156 66.6685 114.864 66.1541C115.571 65.6397 116.144 64.9611 116.531 64.1767L129.59 37.7185C130.045 36.8312 130.736 36.087 131.587 35.5683C132.439 35.0495 133.417 34.7765 134.414 34.7793C135.41 34.7822 136.387 35.0608 137.235 35.5844C138.084 36.108 138.771 36.8562 139.22 37.746Z" fill="url(#paint3_radial_71_10917)"/>
<g filter="url(#filter2_di_71_10917)">
<path d="M139.22 31.7363L152.279 58.1944C152.667 58.9788 153.239 59.6574 153.947 60.1718C154.654 60.6862 155.476 61.021 156.342 61.1474L185.533 65.3569C186.522 65.5083 187.449 65.9311 188.211 66.5782C188.973 67.2253 189.541 68.0714 189.851 69.0221C190.161 69.9728 190.201 70.9909 189.966 71.963C189.732 72.9351 189.232 73.823 188.523 74.5278L167.43 95.1166C166.802 95.727 166.333 96.4812 166.063 97.3138C165.793 98.1464 165.73 99.0322 165.88 99.8947L170.869 128.967C171.04 129.96 170.929 130.982 170.549 131.917C170.17 132.851 169.536 133.66 168.72 134.253C167.904 134.846 166.938 135.198 165.932 135.27C164.926 135.343 163.92 135.132 163.028 134.662L136.918 120.905C136.143 120.499 135.281 120.286 134.405 120.286C133.53 120.286 132.668 120.499 131.892 120.905L105.783 134.662C104.891 135.129 103.886 135.338 102.881 135.265C101.877 135.191 100.913 134.838 100.098 134.246C99.2837 133.654 98.6509 132.846 98.2715 131.913C97.892 130.98 97.7809 129.959 97.9507 128.967L102.931 99.8947C103.08 99.0322 103.017 98.1464 102.747 97.3138C102.477 96.4812 102.008 95.727 101.381 95.1166L80.2875 74.5278C79.5782 73.823 79.0785 72.9351 78.844 71.963C78.6095 70.9909 78.6494 69.9728 78.9594 69.0221C79.2693 68.0714 79.8371 67.2253 80.5994 66.5782C81.3618 65.9311 82.2888 65.5083 83.2772 65.3569L112.468 61.1199C113.334 60.9935 114.156 60.6587 114.864 60.1443C115.571 59.6299 116.144 58.9513 116.531 58.1669L129.59 31.7087C130.045 30.8215 130.736 30.0773 131.587 29.5585C132.439 29.0398 133.417 28.7667 134.414 28.7696C135.41 28.7724 136.387 29.0511 137.235 29.5747C138.084 30.0983 138.771 30.8464 139.22 31.7363Z" fill="url(#paint4_radial_71_10917)"/>
<path d="M139.22 31.7363L152.279 58.1944C152.667 58.9788 153.239 59.6574 153.947 60.1718C154.654 60.6862 155.476 61.021 156.342 61.1474L185.533 65.3569C186.522 65.5083 187.449 65.9311 188.211 66.5782C188.973 67.2253 189.541 68.0714 189.851 69.0221C190.161 69.9728 190.201 70.9909 189.966 71.963C189.732 72.9351 189.232 73.823 188.523 74.5278L167.43 95.1166C166.802 95.727 166.333 96.4812 166.063 97.3138C165.793 98.1464 165.73 99.0322 165.88 99.8947L170.869 128.967C171.04 129.96 170.929 130.982 170.549 131.917C170.17 132.851 169.536 133.66 168.72 134.253C167.904 134.846 166.938 135.198 165.932 135.27C164.926 135.343 163.92 135.132 163.028 134.662L136.918 120.905C136.143 120.499 135.281 120.286 134.405 120.286C133.53 120.286 132.668 120.499 131.892 120.905L105.783 134.662C104.891 135.129 103.886 135.338 102.881 135.265C101.877 135.191 100.913 134.838 100.098 134.246C99.2837 133.654 98.6509 132.846 98.2715 131.913C97.892 130.98 97.7809 129.959 97.9507 128.967L102.931 99.8947C103.08 99.0322 103.017 98.1464 102.747 97.3138C102.477 96.4812 102.008 95.727 101.381 95.1166L80.2875 74.5278C79.5782 73.823 79.0785 72.9351 78.844 71.963C78.6095 70.9909 78.6494 69.9728 78.9594 69.0221C79.2693 68.0714 79.8371 67.2253 80.5994 66.5782C81.3618 65.9311 82.2888 65.5083 83.2772 65.3569L112.468 61.1199C113.334 60.9935 114.156 60.6587 114.864 60.1443C115.571 59.6299 116.144 58.9513 116.531 58.1669L129.59 31.7087C130.045 30.8215 130.736 30.0773 131.587 29.5585C132.439 29.0398 133.417 28.7667 134.414 28.7696C135.41 28.7724 136.387 29.0511 137.235 29.5747C138.084 30.0983 138.771 30.8464 139.22 31.7363Z" fill="url(#paint5_radial_71_10917)" fill-opacity="0.8"/>
<path d="M151.831 58.4158L151.831 58.4157L138.774 31.9616C138.773 31.9611 138.773 31.9605 138.773 31.9599C138.365 31.1532 137.742 30.4749 136.973 30.0001C136.203 29.525 135.317 29.2721 134.412 29.2696C133.508 29.267 132.62 29.5148 131.847 29.9855C131.076 30.4556 130.45 31.1297 130.037 31.9335C130.037 31.9345 130.036 31.9356 130.035 31.9367L116.979 58.3882L116.979 58.3883C116.556 59.2454 115.931 59.9868 115.158 60.5488C114.385 61.1108 113.486 61.4766 112.541 61.6147L112.54 61.6147L83.3529 65.8511C83.3522 65.8512 83.3516 65.8513 83.3509 65.8515C82.4547 65.9891 81.6142 66.3726 80.923 66.9594C80.2312 67.5466 79.716 68.3143 79.4347 69.1771C79.1535 70.0398 79.1172 70.9636 79.33 71.8457C79.5426 72.7271 79.9955 73.5322 80.6383 74.1715C80.6388 74.1721 80.6394 74.1726 80.6399 74.1732L101.729 94.7582L151.831 58.4158ZM151.831 58.4158C152.254 59.2729 152.879 60.0143 153.653 60.5763C154.426 61.1383 155.324 61.5041 156.27 61.6422L156.271 61.6423M151.831 58.4158L156.271 61.6423M156.271 61.6423L185.457 65.8511M156.271 61.6423L185.457 65.8511M170.376 129.051L170.376 129.051L165.387 99.9801L170.376 129.051ZM170.376 129.051C170.531 129.953 170.431 130.881 170.086 131.728C169.742 132.576 169.166 133.311 168.426 133.849C167.685 134.386 166.809 134.706 165.896 134.772C164.983 134.837 164.07 134.646 163.261 134.219L137.151 120.463L137.15 120.462M170.376 129.051L137.15 120.462M137.15 120.462C136.303 120.018 135.361 119.786 134.405 119.786C133.449 119.786 132.507 120.018 131.66 120.462L131.659 120.463M137.15 120.462L131.659 120.463M131.659 120.463L105.551 134.219M131.659 120.463L105.551 134.219M185.457 65.8511C185.458 65.8513 185.459 65.8514 185.46 65.8515M185.457 65.8511L185.46 65.8515M185.46 65.8515C186.356 65.9891 187.196 66.3727 187.887 66.9594C188.579 67.5466 189.094 68.3143 189.376 69.1771C189.657 70.0398 189.693 70.9636 189.48 71.8457C189.268 72.727 188.815 73.532 188.172 74.1713C188.172 74.1719 188.171 74.1726 188.17 74.1732L167.081 94.7582L185.46 65.8515ZM165.588 97.1595C165.883 96.2498 166.395 95.4258 167.08 94.7588L165.588 97.1595ZM165.588 97.1595C165.293 98.0691 165.224 99.037 165.387 99.9792L165.588 97.1595ZM105.551 134.219L105.55 134.219C104.74 134.643 103.829 134.833 102.918 134.766C102.006 134.699 101.131 134.379 100.392 133.842C99.6531 133.304 99.079 132.571 98.7346 131.724C98.3903 130.878 98.2894 129.952 98.4435 129.051C98.4435 129.051 98.4435 129.051 98.4435 129.051L103.423 99.9801C103.423 99.9798 103.423 99.9795 103.423 99.9793L103.423 99.9791L102.931 99.8947C103.08 99.0322 103.017 98.1464 102.747 97.3138C102.477 96.4812 102.008 95.727 101.381 95.1166L101.73 94.7588L105.551 134.219Z" stroke="white"/>
</g>
<path d="M226.851 77.4713L236.383 96.7825C236.665 97.355 237.083 97.8503 237.6 98.2258C238.116 98.6012 238.716 98.8456 239.348 98.9379L260.654 102.01C261.375 102.121 262.052 102.429 262.608 102.902C263.165 103.374 263.579 103.991 263.805 104.685C264.032 105.379 264.061 106.122 263.89 106.832C263.718 107.541 263.354 108.189 262.836 108.704L247.441 123.731C246.983 124.177 246.64 124.727 246.443 125.335C246.246 125.943 246.2 126.589 246.309 127.219L249.951 148.438C250.076 149.163 249.995 149.909 249.718 150.591C249.44 151.273 248.978 151.864 248.382 152.296C247.787 152.729 247.082 152.986 246.347 153.039C245.613 153.091 244.879 152.937 244.228 152.594L225.171 142.554C224.605 142.257 223.976 142.102 223.337 142.102C222.698 142.102 222.068 142.257 221.503 142.554L202.446 152.594C201.795 152.936 201.061 153.088 200.328 153.034C199.595 152.981 198.891 152.723 198.297 152.291C197.702 151.859 197.24 151.269 196.963 150.588C196.686 149.907 196.605 149.162 196.729 148.438L200.364 127.219C200.473 126.589 200.427 125.943 200.23 125.335C200.033 124.727 199.691 124.177 199.233 123.731L183.837 108.704C183.32 108.189 182.955 107.541 182.784 106.832C182.613 106.122 182.642 105.379 182.868 104.685C183.094 103.991 183.509 103.374 184.065 102.902C184.621 102.429 185.298 102.121 186.019 102.01L207.325 98.9178C207.957 98.8255 208.557 98.5811 209.074 98.2057C209.59 97.8302 210.008 97.335 210.291 96.7624L219.822 77.4512C220.154 76.8036 220.659 76.2604 221.28 75.8818C221.901 75.5032 222.615 75.3038 223.343 75.3059C224.07 75.308 224.783 75.5114 225.402 75.8936C226.022 76.2757 226.523 76.8218 226.851 77.4713Z" fill="url(#paint6_radial_71_10917)"/>
<g filter="url(#filter3_di_71_10917)">
<path d="M226.851 71.4612L236.383 90.7725C236.665 91.345 237.083 91.8403 237.6 92.2158C238.116 92.5912 238.716 92.8356 239.348 92.9278L260.654 96.0002C261.375 96.1107 262.052 96.4193 262.608 96.8916C263.165 97.364 263.579 97.9815 263.805 98.6754C264.032 99.3693 264.061 100.112 263.89 100.822C263.718 101.531 263.354 102.179 262.836 102.694L247.441 117.721C246.983 118.167 246.64 118.717 246.443 119.325C246.246 119.933 246.2 120.579 246.309 121.209L249.951 142.428C250.076 143.153 249.995 143.899 249.718 144.581C249.44 145.263 248.978 145.854 248.382 146.286C247.787 146.719 247.082 146.976 246.347 147.029C245.613 147.081 244.879 146.927 244.228 146.584L225.171 136.544C224.605 136.247 223.976 136.092 223.337 136.092C222.698 136.092 222.068 136.247 221.503 136.544L202.446 146.584C201.795 146.926 201.061 147.078 200.328 147.024C199.595 146.971 198.891 146.713 198.297 146.281C197.702 145.849 197.24 145.259 196.963 144.578C196.686 143.897 196.605 143.152 196.729 142.428L200.364 121.209C200.473 120.579 200.427 119.933 200.23 119.325C200.033 118.717 199.691 118.167 199.233 117.721L183.837 102.694C183.32 102.179 182.955 101.531 182.784 100.822C182.613 100.112 182.642 99.3693 182.868 98.6754C183.094 97.9815 183.509 97.364 184.065 96.8916C184.621 96.4193 185.298 96.1107 186.019 96.0002L207.325 92.9078C207.957 92.8155 208.557 92.5711 209.074 92.1957C209.59 91.8202 210.008 91.3249 210.291 90.7524L219.822 71.4412C220.154 70.7936 220.659 70.2504 221.28 69.8718C221.901 69.4931 222.615 69.2938 223.343 69.2959C224.07 69.298 224.783 69.5014 225.402 69.8835C226.022 70.2657 226.523 70.8118 226.851 71.4612Z" fill="url(#paint7_radial_71_10917)"/>
<path d="M235.934 90.9939L235.934 90.9938L226.405 71.6866C226.404 71.686 226.404 71.6854 226.404 71.6849C226.117 71.1185 225.68 70.6424 225.14 70.309C224.599 69.9753 223.977 69.7977 223.341 69.7959C222.706 69.7941 222.083 69.9681 221.54 70.2987C220.999 70.6287 220.559 71.1019 220.269 71.666C220.269 71.667 220.268 71.6681 220.268 71.6691L210.739 90.9737L210.739 90.9738C210.42 91.619 209.95 92.1771 209.368 92.6001C208.786 93.0232 208.11 93.2985 207.398 93.4025L207.397 93.4026L186.095 96.4945C186.095 96.4946 186.094 96.4947 186.093 96.4948C185.464 96.5915 184.874 96.8608 184.389 97.2728L184.065 96.8916L184.389 97.2728C183.903 97.6853 183.541 98.2244 183.343 98.8303C183.146 99.4363 183.12 100.085 183.27 100.705C183.419 101.323 183.737 101.889 184.188 102.338C184.189 102.338 184.189 102.339 184.19 102.339L199.581 117.363L235.934 90.9939ZM235.934 90.9939C236.253 91.639 236.724 92.1972 237.306 92.6202C237.888 93.0433 238.564 93.3186 239.276 93.4226L239.277 93.4227M235.934 90.9939L239.277 93.4227M239.277 93.4227L260.578 96.4945C260.579 96.4946 260.58 96.4947 260.58 96.4948C261.209 96.5916 261.799 96.8609 262.285 97.2728C262.771 97.6853 263.132 98.2244 263.33 98.8303C263.528 99.4363 263.553 100.085 263.404 100.705C263.254 101.323 262.936 101.888 262.485 102.337C262.485 102.338 262.484 102.339 262.484 102.339L247.092 117.363L239.277 93.4227ZM249.458 142.512L249.458 142.512L245.817 121.294L245.817 121.293C245.694 120.584 245.746 119.855 245.968 119.171C246.19 118.486 246.575 117.866 247.091 117.363L249.458 142.512ZM249.458 142.512C249.567 143.146 249.496 143.797 249.254 144.393C249.012 144.988 248.608 145.504 248.088 145.882C247.568 146.259 246.953 146.484 246.312 146.53C245.671 146.576 245.029 146.442 244.461 146.142L225.404 136.101L225.403 136.101M249.458 142.512L225.403 136.101M225.403 136.101C224.765 135.767 224.056 135.592 223.337 135.592C222.617 135.592 221.908 135.767 221.27 136.101L221.27 136.101M225.403 136.101L221.27 136.101M221.27 136.101L202.214 146.141M221.27 136.101L202.214 146.141M202.214 146.141L202.213 146.142C201.644 146.44 201.004 146.572 200.364 146.526C199.724 146.479 199.11 146.254 198.591 145.877C198.072 145.499 197.668 144.984 197.427 144.389C197.185 143.795 197.114 143.145 197.222 142.512C197.222 142.512 197.222 142.512 197.222 142.512L200.857 121.294C200.857 121.294 200.857 121.294 200.857 121.294C200.98 120.584 200.928 119.855 200.706 119.171C200.484 118.486 200.098 117.866 199.582 117.363L202.214 146.141Z" stroke="white"/>
</g>
<path d="M11.1231 52.0647C10.8083 50.83 11.9482 49.7175 13.1749 50.0622L22.6013 52.7112C23.828 53.0559 24.2215 54.5993 23.3096 55.4893L16.3023 62.3283C15.3904 63.2183 13.8571 62.7874 13.5422 61.5527L11.1231 52.0647Z" fill="#FBE481"/>
<path d="M222.654 18.9903C222.339 17.7556 223.479 16.6431 224.706 16.9878L243.785 22.3496C245.012 22.6943 245.406 24.2377 244.494 25.1277L230.31 38.9704C229.399 39.8604 227.865 39.4295 227.55 38.1948L222.654 18.9903Z" fill="#FBE481"/>
<path d="M56.5379 7.99866C57.0272 5.97173 59.9103 5.97173 60.3996 7.99866L62.3672 16.1496C62.5421 16.8739 63.1076 17.4395 63.8319 17.6143L71.9828 19.5819C74.0098 20.0712 74.0098 22.9543 71.9828 23.4436L63.8319 25.4111C63.1076 25.586 62.5421 26.1515 62.3672 26.8759L60.3996 35.0268C59.9103 37.0537 57.0272 37.0537 56.5379 35.0268L54.5704 26.8759C54.3955 26.1515 53.83 25.586 53.1056 25.4111L44.9547 23.4436C42.9278 22.9543 42.9278 20.0712 44.9547 19.5819L53.1056 17.6143C53.83 17.4395 54.3955 16.8739 54.5704 16.1496L56.5379 7.99866Z" fill="#FBE481"/>
<path fill-rule="evenodd" clip-rule="evenodd" d="M36.9562 188.613C38.3612 188.613 39.5002 187.474 39.5002 186.069C39.5002 184.664 38.3612 183.525 36.9562 183.525C35.5512 183.525 34.4122 184.664 34.4122 186.069C34.4122 187.474 35.5512 188.613 36.9562 188.613ZM36.9562 192.344C40.4215 192.344 43.2307 189.535 43.2307 186.069C43.2307 182.604 40.4215 179.795 36.9562 179.795C33.4909 179.795 30.6816 182.604 30.6816 186.069C30.6816 189.535 33.4909 192.344 36.9562 192.344Z" fill="#FBE481"/>
<path d="M201.758 187.794C202.247 185.767 205.13 185.767 205.619 187.794L207.587 195.944C207.762 196.669 208.327 197.234 209.052 197.409L217.203 199.377C219.23 199.866 219.23 202.749 217.203 203.238L209.052 205.206C208.327 205.381 207.762 205.946 207.587 206.671L205.619 214.822C205.13 216.849 202.247 216.849 201.758 214.822L199.79 206.671C199.615 205.946 199.05 205.381 198.325 205.206L190.174 203.238C188.148 202.749 188.148 199.866 190.174 199.377L198.325 197.409C199.05 197.234 199.615 196.669 199.79 195.944L201.758 187.794Z" fill="#FBE481"/>
<path fill-rule="evenodd" clip-rule="evenodd" d="M241.213 159.929C242.618 159.929 243.757 158.79 243.757 157.385C243.757 155.98 242.618 154.841 241.213 154.841C239.808 154.841 238.669 155.98 238.669 157.385C238.669 158.79 239.808 159.929 241.213 159.929ZM241.213 163.659C244.678 163.659 247.488 160.85 247.488 157.385C247.488 153.92 244.678 151.11 241.213 151.11C237.748 151.11 234.938 153.92 234.938 157.385C234.938 160.85 237.748 163.659 241.213 163.659Z" fill="#FDE164"/>
<defs>
<filter id="filter0_f_71_10917" x="13.5135" y="134.903" width="243.222" height="65.583" filterUnits="userSpaceOnUse" color-interpolation-filters="sRGB">
<feFlood flood-opacity="0" result="BackgroundImageFix"/>
<feBlend mode="normal" in="SourceGraphic" in2="BackgroundImageFix" result="shape"/>
<feGaussianBlur stdDeviation="10.3453" result="effect1_foregroundBlur_71_10917"/>
</filter>
<filter id="filter1_di_71_10917" x="0.249023" y="67.2959" width="93.3262" height="89.7429" filterUnits="userSpaceOnUse" color-interpolation-filters="sRGB">
<feFlood flood-opacity="0" result="BackgroundImageFix"/>
<feColorMatrix in="SourceAlpha" type="matrix" values="0 0 0 0 0 0 0 0 0 0 0 0 0 0 0 0 0 0 127 0" result="hardAlpha"/>
<feOffset dy="4"/>
<feGaussianBlur stdDeviation="3"/>
<feComposite in2="hardAlpha" operator="out"/>
<feColorMatrix type="matrix" values="0 0 0 0 0 0 0 0 0 0 0 0 0 0 0 0 0 0 0.12 0"/>
<feBlend mode="normal" in2="BackgroundImageFix" result="effect1_dropShadow_71_10917"/>
<feBlend mode="normal" in="SourceGraphic" in2="effect1_dropShadow_71_10917" result="shape"/>
<feColorMatrix in="SourceAlpha" type="matrix" values="0 0 0 0 0 0 0 0 0 0 0 0 0 0 0 0 0 0 127 0" result="hardAlpha"/>
<feOffset dy="4"/>
<feGaussianBlur stdDeviation="8"/>
<feComposite in2="hardAlpha" operator="arithmetic" k2="-1" k3="1"/>
<feColorMatrix type="matrix" values="0 0 0 0 0.967431 0 0 0 0 0.799744 0 0 0 0 0.474236 0 0 0 0.5 0"/>
<feBlend mode="normal" in2="shape" result="effect2_innerShadow_71_10917"/>
</filter>
<filter id="filter2_di_71_10917" x="72.6934" y="26.7695" width="123.424" height="118.515" filterUnits="userSpaceOnUse" color-interpolation-filters="sRGB">
<feFlood flood-opacity="0" result="BackgroundImageFix"/>
<feColorMatrix in="SourceAlpha" type="matrix" values="0 0 0 0 0 0 0 0 0 0 0 0 0 0 0 0 0 0 127 0" result="hardAlpha"/>
<feOffset dy="4"/>
<feGaussianBlur stdDeviation="3"/>
<feComposite in2="hardAlpha" operator="out"/>
<feColorMatrix type="matrix" values="0 0 0 0 0 0 0 0 0 0 0 0 0 0 0 0 0 0 0.12 0"/>
<feBlend mode="normal" in2="BackgroundImageFix" result="effect1_dropShadow_71_10917"/>
<feBlend mode="normal" in="SourceGraphic" in2="effect1_dropShadow_71_10917" result="shape"/>
<feColorMatrix in="SourceAlpha" type="matrix" values="0 0 0 0 0 0 0 0 0 0 0 0 0 0 0 0 0 0 127 0" result="hardAlpha"/>
<feOffset dy="4"/>
<feGaussianBlur stdDeviation="8"/>
<feComposite in2="hardAlpha" operator="arithmetic" k2="-1" k3="1"/>
<feColorMatrix type="matrix" values="0 0 0 0 0.967431 0 0 0 0 0.799744 0 0 0 0 0.474236 0 0 0 0.5 0"/>
<feBlend mode="normal" in2="shape" result="effect2_innerShadow_71_10917"/>
</filter>
<filter id="filter3_di_71_10917" x="176.674" y="67.2959" width="93.3262" height="89.7429" filterUnits="userSpaceOnUse" color-interpolation-filters="sRGB">
<feFlood flood-opacity="0" result="BackgroundImageFix"/>
<feColorMatrix in="SourceAlpha" type="matrix" values="0 0 0 0 0 0 0 0 0 0 0 0 0 0 0 0 0 0 127 0" result="hardAlpha"/>
<feOffset dy="4"/>
<feGaussianBlur stdDeviation="3"/>
<feComposite in2="hardAlpha" operator="out"/>
<feColorMatrix type="matrix" values="0 0 0 0 0 0 0 0 0 0 0 0 0 0 0 0 0 0 0.12 0"/>
<feBlend mode="normal" in2="BackgroundImageFix" result="effect1_dropShadow_71_10917"/>
<feBlend mode="normal" in="SourceGraphic" in2="effect1_dropShadow_71_10917" result="shape"/>
<feColorMatrix in="SourceAlpha" type="matrix" values="0 0 0 0 0 0 0 0 0 0 0 0 0 0 0 0 0 0 127 0" result="hardAlpha"/>
<feOffset dy="4"/>
<feGaussianBlur stdDeviation="8"/>
<feComposite in2="hardAlpha" operator="arithmetic" k2="-1" k3="1"/>
<feColorMatrix type="matrix" values="0 0 0 0 0.967431 0 0 0 0 0.799744 0 0 0 0 0.474236 0 0 0 0.5 0"/>
<feBlend mode="normal" in2="shape" result="effect2_innerShadow_71_10917"/>
</filter>
<radialGradient id="paint0_radial_71_10917" cx="0" cy="0" r="1" gradientUnits="userSpaceOnUse" gradientTransform="translate(135.125 167.694) rotate(89.8984) scale(21.9401 182.978)">
<stop stop-color="#FCE26E"/>
<stop offset="1" stop-color="#FFF0AF" stop-opacity="0"/>
</radialGradient>
<radialGradient id="paint1_radial_71_10917" cx="0" cy="0" r="1" gradientUnits="userSpaceOnUse" gradientTransform="translate(23.0301 146.194) rotate(-65.1363) scale(86.0271 89.9918)">
<stop stop-color="#FFD50B"/>
<stop offset="1" stop-color="#FCF2D7"/>
</radialGradient>
<radialGradient id="paint2_radial_71_10917" cx="0" cy="0" r="1" gradientUnits="userSpaceOnUse" gradientTransform="translate(23.0301 140.184) rotate(-65.1363) scale(86.0271 89.9918)">
<stop stop-color="#E2B514"/>
<stop offset="1" stop-color="#FCF2D7"/>
</radialGradient>
<radialGradient id="paint3_radial_71_10917" cx="0" cy="0" r="1" gradientUnits="userSpaceOnUse" gradientTransform="translate(101.407 164.274) rotate(-63.4349) scale(125.739 86.6631)">
<stop stop-color="#FFD50B"/>
<stop offset="1" stop-color="#FCF2D7"/>
</radialGradient>
<radialGradient id="paint4_radial_71_10917" cx="0" cy="0" r="1" gradientUnits="userSpaceOnUse" gradientTransform="translate(101.685 125.893) rotate(-65.1363) scale(117.865 123.297)">
<stop stop-color="#E2B514"/>
<stop offset="1" stop-color="#FCF2D7"/>
</radialGradient>
<radialGradient id="paint5_radial_71_10917" cx="0" cy="0" r="1" gradientUnits="userSpaceOnUse" gradientTransform="translate(137.581 82.0269) rotate(94.0706) scale(44.7436 46.8056)">
<stop stop-color="white"/>
<stop offset="1" stop-color="white" stop-opacity="0"/>
</radialGradient>
<radialGradient id="paint6_radial_71_10917" cx="0" cy="0" r="1" gradientUnits="userSpaceOnUse" gradientTransform="translate(199.455 146.194) rotate(-65.1363) scale(86.0271 89.9918)">
<stop stop-color="#FFD50B"/>
<stop offset="1" stop-color="#FCF2D7"/>
</radialGradient>
<radialGradient id="paint7_radial_71_10917" cx="0" cy="0" r="1" gradientUnits="userSpaceOnUse" gradientTransform="translate(199.455 140.184) rotate(-65.1363) scale(86.0271 89.9918)">
<stop stop-color="#E2B514"/>
<stop offset="1" stop-color="#FCF2D7"/>
</radialGradient>
</defs>
</svg>
