<svg xmlns="http://www.w3.org/2000/svg" width="24" height="24" viewBox="0 0 24 24" fill="none">
    <path d="M20 6L9 17L4 12" stroke="#32D583" stroke-width="2" stroke-linecap="round"
        stroke-linejoin="round" />
</svg>